{
    "name": "DIFFERENTIAL_EVOLUTION_options",
    "required":["max_iter"],
    "properties": {
        "xtol_rel": {
            "type": "number",
            "minimum": 0.0
        },
        "xtol_abs": {
            "type": "number",
            "minimum": 0.0
        },
        "ftol_rel": {
            "type": "number",
            "minimum": 0.0
        },
        "ftol_abs": {
            "type": "number",
            "minimum": 0.0
        },
        "max_iter":{
            "type": "integer",
            "minimum": 1
        },
        "seed":{
            "type":["null", "integer"]
        },
        "strategy":{
            "type": "string"
        },
        "popsize":{
            "type":"integer"
        },
        "tol":{
            "type":"number"
        },
        "atol":{
            "type":"number"
        },
        "mutation":{"anyOf":[
            {"type": "number"},
            {
                "type": "array",
                "minItems": 2,
                "maxItems": 2,
                "items": {
                    "type": "number"
                }
            }
        ]},
        "recombination":{
            "type":"number"
        },
        "polish":{
            "type":"boolean"
        },
        "init":{
            "type":"string"
        },
        "updating":{
            "type":"string"
        },
        "workers":{
            "type":"integer"
        },
        "eq_tolerance": {
            "type": "number",
            "minimum": 0.0
        },
        "ineq_tolerance": {
            "type": "number",
            "minimum": 0.0
        },
        "normalize_design_space": {
			"type": "boolean"
		}
    },
    "$schema": "http://json-schema.org/draft-04/schema",
    "type": "object",
    "additionalProperties": false,
    "id": "#DIFFERENTIAL_EVOLUTION"
}
